^E:\BENILDE\SCHOOL\3RD YEAR\GDSTRUCT\SEATWORK\SEATWORK 5\PRIMENUMORNOT\DEBUG\PRIMENUMORNOT.OBJ
E:\BENILDE\SCHOOL\3RD YEAR\GDSTRUCT\SEATWORK\SEATWORK 5\SEATWORK\DEBUG\PRIMENUMORNOT.EXE
E:\BENILDE\SCHOOL\3RD YEAR\GDSTRUCT\SEATWORK\SEATWORK 5\SEATWORK\DEBUG\PRIMENUMORNOT.ILK
E:\BENILDE\SCHOOL\3RD YEAR\GDSTRUCT\SEATWORK\SEATWORK 5\SEATWORK\DEBUG\PRIMENUMORNOT.PDB
