^C:\USERS\11702463\SOURCE\REPOS\SEATWORK3\SEATWORK3\SOURCE.CPP
C:\USERS\11702463\SOURCE\REPOS\SEATWORK3\SEATWORK3\DEBUG\VC142.PDB
C:\USERS\11702463\SOURCE\REPOS\SEATWORK3\SEATWORK3\DEBUG\VC142.IDB
C:\USERS\11702463\SOURCE\REPOS\SEATWORK3\SEATWORK3\DEBUG\SOURCE.OBJ
