^C:\USERS\11702463\SOURCE\REPOS\DIAGNOSTICSW_9-23-19\DIAGNOSTICSW_9-23-19\DEBUG\SOURCE.OBJ
C:\USERS\11702463\SOURCE\REPOS\DIAGNOSTICSW_9-23-19\DEBUG\DIAGNOSTICSW_9-23-19.EXE
C:\USERS\11702463\SOURCE\REPOS\DIAGNOSTICSW_9-23-19\DEBUG\DIAGNOSTICSW_9-23-19.ILK
C:\USERS\11702463\SOURCE\REPOS\DIAGNOSTICSW_9-23-19\DEBUG\DIAGNOSTICSW_9-23-19.PDB
