^E:\BENILDE\SCHOOL\3RD YEAR\GDSTRUCT\SEATWORK\SEATWORK 5\FIBONACCI\DEBUG\FIBONACCI.OBJ
C:\PROGRAM FILES (X86)\WINDOWS KITS\10\LIB\10.0.17763.0\UM\X86\KERNEL32.LIB
C:\PROGRAM FILES (X86)\WINDOWS KITS\10\LIB\10.0.17763.0\UM\X86\USER32.LIB
C:\PROGRAM FILES (X86)\WINDOWS KITS\10\LIB\10.0.17763.0\UM\X86\GDI32.LIB
C:\PROGRAM FILES (X86)\WINDOWS KITS\10\LIB\10.0.17763.0\UM\X86\WINSPOOL.LIB
C:\PROGRAM FILES (X86)\WINDOWS KITS\10\LIB\10.0.17763.0\UM\X86\COMDLG32.LIB
C:\PROGRAM FILES (X86)\WINDOWS KITS\10\LIB\10.0.17763.0\UM\X86\ADVAPI32.LIB
C:\PROGRAM FILES (X86)\WINDOWS KITS\10\LIB\10.0.17763.0\UM\X86\SHELL32.LIB
C:\PROGRAM FILES (X86)\WINDOWS KITS\10\LIB\10.0.17763.0\UM\X86\OLE32.LIB
C:\PROGRAM FILES (X86)\WINDOWS KITS\10\LIB\10.0.17763.0\UM\X86\OLEAUT32.LIB
C:\PROGRAM FILES (X86)\WINDOWS KITS\10\LIB\10.0.17763.0\UM\X86\UUID.LIB
C:\PROGRAM FILES (X86)\WINDOWS KITS\10\LIB\10.0.17763.0\UM\X86\ODBC32.LIB
C:\PROGRAM FILES (X86)\WINDOWS KITS\10\LIB\10.0.17763.0\UM\X86\ODBCCP32.LIB
E:\BENILDE\SCHOOL\3RD YEAR\GDSTRUCT\SEATWORK\SEATWORK 5\FIBONACCI\DEBUG\FIBONACCI.OBJ
C:\WINDOWS\GLOBALIZATION\SORTING\SORTDEFAULT.NLS
D:\DATA\PROGRAM FILES\VISUAL STUDIOS\VC\TOOLS\MSVC\14.21.27702\LIB\X86\MSVCPRTD.LIB
D:\DATA\PROGRAM FILES\VISUAL STUDIOS\VC\TOOLS\MSVC\14.21.27702\LIB\X86\MSVCRTD.LIB
D:\DATA\PROGRAM FILES\VISUAL STUDIOS\VC\TOOLS\MSVC\14.21.27702\LIB\X86\OLDNAMES.LIB
D:\DATA\PROGRAM FILES\VISUAL STUDIOS\VC\TOOLS\MSVC\14.21.27702\LIB\X86\VCRUNTIMED.LIB
C:\PROGRAM FILES (X86)\WINDOWS KITS\10\LIB\10.0.17763.0\UCRT\X86\UCRTD.LIB
D:\DATA\PROGRAM FILES\VISUAL STUDIOS\VC\TOOLS\MSVC\14.21.27702\BIN\HOSTX86\X86\CVTRES.EXE
C:\WINDOWS\SYSTEM32\TZRES.DLL
