^C:\USERS\SCONC\DOWNLOADS\SUMOFINPUT.CPP
E:\BENILDE\SCHOOL\3RD YEAR\GDSTRUCT\SEATWORK\SEATWORK 5\SEATWORK\DEBUG\VC142.PDB
E:\BENILDE\SCHOOL\3RD YEAR\GDSTRUCT\SEATWORK\SEATWORK 5\SEATWORK\DEBUG\VC142.IDB
E:\BENILDE\SCHOOL\3RD YEAR\GDSTRUCT\SEATWORK\SEATWORK 5\SEATWORK\DEBUG\SUMOFINPUT.OBJ
