^E:\BENILDE\SCHOOL\3RD YEAR\GDSTRUCT\SEATWORK\SEATWORK 5\SEATWORK\SUMOFINPUT.CPP
D:\DATA\PROGRAM FILES\VISUAL STUDIOS\VC\TOOLS\MSVC\14.21.27702\BIN\HOSTX86\X86\1033\CLUI.DLL
C:\WINDOWS\GLOBALIZATION\SORTING\SORTDEFAULT.NLS
C:\WINDOWS\SYSTEM32\TZRES.DLL
D:\DATA\PROGRAM FILES\VISUAL STUDIOS\VC\TOOLS\MSVC\14.21.27702\INCLUDE\IOSTREAM
D:\DATA\PROGRAM FILES\VISUAL STUDIOS\VC\TOOLS\MSVC\14.21.27702\INCLUDE\ISTREAM
D:\DATA\PROGRAM FILES\VISUAL STUDIOS\VC\TOOLS\MSVC\14.21.27702\INCLUDE\OSTREAM
D:\DATA\PROGRAM FILES\VISUAL STUDIOS\VC\TOOLS\MSVC\14.21.27702\INCLUDE\IOS
D:\DATA\PROGRAM FILES\VISUAL STUDIOS\VC\TOOLS\MSVC\14.21.27702\INCLUDE\XLOCNUM
D:\DATA\PROGRAM FILES\VISUAL STUDIOS\VC\TOOLS\MSVC\14.21.27702\INCLUDE\CLIMITS
D:\DATA\PROGRAM FILES\VISUAL STUDIOS\VC\TOOLS\MSVC\14.21.27702\INCLUDE\YVALS_CORE.H
D:\DATA\PROGRAM FILES\VISUAL STUDIOS\VC\TOOLS\MSVC\14.21.27702\INCLUDE\CRTDEFS.H
D:\DATA\PROGRAM FILES\VISUAL STUDIOS\VC\TOOLS\MSVC\14.21.27702\INCLUDE\VCRUNTIME.H
D:\DATA\PROGRAM FILES\VISUAL STUDIOS\VC\TOOLS\MSVC\14.21.27702\INCLUDE\SAL.H
D:\DATA\PROGRAM FILES\VISUAL STUDIOS\VC\TOOLS\MSVC\14.21.27702\INCLUDE\CONCURRENCYSAL.H
D:\DATA\PROGRAM FILES\VISUAL STUDIOS\VC\TOOLS\MSVC\14.21.27702\INCLUDE\VADEFS.H
C:\PROGRAM FILES (X86)\WINDOWS KITS\10\INCLUDE\10.0.17763.0\UCRT\CORECRT.H
D:\DATA\PROGRAM FILES\VISUAL STUDIOS\VC\TOOLS\MSVC\14.21.27702\INCLUDE\XKEYCHECK.H
D:\DATA\PROGRAM FILES\VISUAL STUDIOS\VC\TOOLS\MSVC\14.21.27702\INCLUDE\LIMITS.H
D:\DATA\PROGRAM FILES\VISUAL STUDIOS\VC\TOOLS\MSVC\14.21.27702\INCLUDE\CMATH
D:\DATA\PROGRAM FILES\VISUAL STUDIOS\VC\TOOLS\MSVC\14.21.27702\INCLUDE\YVALS.H
C:\PROGRAM FILES (X86)\WINDOWS KITS\10\INCLUDE\10.0.17763.0\UCRT\CRTDBG.H
D:\DATA\PROGRAM FILES\VISUAL STUDIOS\VC\TOOLS\MSVC\14.21.27702\INCLUDE\VCRUNTIME_NEW_DEBUG.H
D:\DATA\PROGRAM FILES\VISUAL STUDIOS\VC\TOOLS\MSVC\14.21.27702\INCLUDE\VCRUNTIME_NEW.H
D:\DATA\PROGRAM FILES\VISUAL STUDIOS\VC\TOOLS\MSVC\14.21.27702\INCLUDE\USE_ANSI.H
D:\DATA\PROGRAM FILES\VISUAL STUDIOS\VC\TOOLS\MSVC\14.21.27702\INCLUDE\CSTDLIB
C:\PROGRAM FILES (X86)\WINDOWS KITS\10\INCLUDE\10.0.17763.0\UCRT\MATH.H
C:\PROGRAM FILES (X86)\WINDOWS KITS\10\INCLUDE\10.0.17763.0\UCRT\CORECRT_MATH.H
C:\PROGRAM FILES (X86)\WINDOWS KITS\10\INCLUDE\10.0.17763.0\UCRT\STDLIB.H
C:\PROGRAM FILES (X86)\WINDOWS KITS\10\INCLUDE\10.0.17763.0\UCRT\CORECRT_MALLOC.H
C:\PROGRAM FILES (X86)\WINDOWS KITS\10\INCLUDE\10.0.17763.0\UCRT\CORECRT_SEARCH.H
C:\PROGRAM FILES (X86)\WINDOWS KITS\10\INCLUDE\10.0.17763.0\UCRT\STDDEF.H
C:\PROGRAM FILES (X86)\WINDOWS KITS\10\INCLUDE\10.0.17763.0\UCRT\CORECRT_WSTDLIB.H
D:\DATA\PROGRAM FILES\VISUAL STUDIOS\VC\TOOLS\MSVC\14.21.27702\INCLUDE\XTGMATH.H
D:\DATA\PROGRAM FILES\VISUAL STUDIOS\VC\TOOLS\MSVC\14.21.27702\INCLUDE\XTR1COMMON
D:\DATA\PROGRAM FILES\VISUAL STUDIOS\VC\TOOLS\MSVC\14.21.27702\INCLUDE\CSTDIO
C:\PROGRAM FILES (X86)\WINDOWS KITS\10\INCLUDE\10.0.17763.0\UCRT\STDIO.H
C:\PROGRAM FILES (X86)\WINDOWS KITS\10\INCLUDE\10.0.17763.0\UCRT\CORECRT_WSTDIO.H
C:\PROGRAM FILES (X86)\WINDOWS KITS\10\INCLUDE\10.0.17763.0\UCRT\CORECRT_STDIO_CONFIG.H
D:\DATA\PROGRAM FILES\VISUAL STUDIOS\VC\TOOLS\MSVC\14.21.27702\INCLUDE\STREAMBUF
D:\DATA\PROGRAM FILES\VISUAL STUDIOS\VC\TOOLS\MSVC\14.21.27702\INCLUDE\XIOSBASE
C:\PROGRAM FILES (X86)\WINDOWS KITS\10\INCLUDE\10.0.17763.0\UCRT\SHARE.H
C:\PROGRAM FILES (X86)\WINDOWS KITS\10\INCLUDE\10.0.17763.0\UCRT\CORECRT_SHARE.H
D:\DATA\PROGRAM FILES\VISUAL STUDIOS\VC\TOOLS\MSVC\14.21.27702\INCLUDE\SYSTEM_ERROR
D:\DATA\PROGRAM FILES\VISUAL STUDIOS\VC\TOOLS\MSVC\14.21.27702\INCLUDE\CERRNO
C:\PROGRAM FILES (X86)\WINDOWS KITS\10\INCLUDE\10.0.17763.0\UCRT\ERRNO.H
D:\DATA\PROGRAM FILES\VISUAL STUDIOS\VC\TOOLS\MSVC\14.21.27702\INCLUDE\STDEXCEPT
D:\DATA\PROGRAM FILES\VISUAL STUDIOS\VC\TOOLS\MSVC\14.21.27702\INCLUDE\EXCEPTION
D:\DATA\PROGRAM FILES\VISUAL STUDIOS\VC\TOOLS\MSVC\14.21.27702\INCLUDE\TYPE_TRAITS
D:\DATA\PROGRAM FILES\VISUAL STUDIOS\VC\TOOLS\MSVC\14.21.27702\INCLUDE\XSTDDEF
D:\DATA\PROGRAM FILES\VISUAL STUDIOS\VC\TOOLS\MSVC\14.21.27702\INCLUDE\CSTDDEF
D:\DATA\PROGRAM FILES\VISUAL STUDIOS\VC\TOOLS\MSVC\14.21.27702\INCLUDE\INITIALIZER_LIST
C:\PROGRAM FILES (X86)\WINDOWS KITS\10\INCLUDE\10.0.17763.0\UCRT\MALLOC.H
D:\DATA\PROGRAM FILES\VISUAL STUDIOS\VC\TOOLS\MSVC\14.21.27702\INCLUDE\VCRUNTIME_EXCEPTION.H
D:\DATA\PROGRAM FILES\VISUAL STUDIOS\VC\TOOLS\MSVC\14.21.27702\INCLUDE\EH.H
C:\PROGRAM FILES (X86)\WINDOWS KITS\10\INCLUDE\10.0.17763.0\UCRT\CORECRT_TERMINATE.H
D:\DATA\PROGRAM FILES\VISUAL STUDIOS\VC\TOOLS\MSVC\14.21.27702\INCLUDE\XSTRING
D:\DATA\PROGRAM FILES\VISUAL STUDIOS\VC\TOOLS\MSVC\14.21.27702\INCLUDE\IOSFWD
D:\DATA\PROGRAM FILES\VISUAL STUDIOS\VC\TOOLS\MSVC\14.21.27702\INCLUDE\CSTRING
C:\PROGRAM FILES (X86)\WINDOWS KITS\10\INCLUDE\10.0.17763.0\UCRT\STRING.H
C:\PROGRAM FILES (X86)\WINDOWS KITS\10\INCLUDE\10.0.17763.0\UCRT\CORECRT_MEMORY.H
C:\PROGRAM FILES (X86)\WINDOWS KITS\10\INCLUDE\10.0.17763.0\UCRT\CORECRT_MEMCPY_S.H
D:\DATA\PROGRAM FILES\VISUAL STUDIOS\VC\TOOLS\MSVC\14.21.27702\INCLUDE\VCRUNTIME_STRING.H
C:\PROGRAM FILES (X86)\WINDOWS KITS\10\INCLUDE\10.0.17763.0\UCRT\CORECRT_WSTRING.H
D:\DATA\PROGRAM FILES\VISUAL STUDIOS\VC\TOOLS\MSVC\14.21.27702\INCLUDE\CWCHAR
C:\PROGRAM FILES (X86)\WINDOWS KITS\10\INCLUDE\10.0.17763.0\UCRT\WCHAR.H
C:\PROGRAM FILES (X86)\WINDOWS KITS\10\INCLUDE\10.0.17763.0\UCRT\CORECRT_WCONIO.H
C:\PROGRAM FILES (X86)\WINDOWS KITS\10\INCLUDE\10.0.17763.0\UCRT\CORECRT_WCTYPE.H
C:\PROGRAM FILES (X86)\WINDOWS KITS\10\INCLUDE\10.0.17763.0\UCRT\CORECRT_WDIRECT.H
C:\PROGRAM FILES (X86)\WINDOWS KITS\10\INCLUDE\10.0.17763.0\UCRT\CORECRT_WIO.H
C:\PROGRAM FILES (X86)\WINDOWS KITS\10\INCLUDE\10.0.17763.0\UCRT\CORECRT_WPROCESS.H
C:\PROGRAM FILES (X86)\WINDOWS KITS\10\INCLUDE\10.0.17763.0\UCRT\CORECRT_WTIME.H
C:\PROGRAM FILES (X86)\WINDOWS KITS\10\INCLUDE\10.0.17763.0\UCRT\SYS\STAT.H
C:\PROGRAM FILES (X86)\WINDOWS KITS\10\INCLUDE\10.0.17763.0\UCRT\SYS\TYPES.H
D:\DATA\PROGRAM FILES\VISUAL STUDIOS\VC\TOOLS\MSVC\14.21.27702\INCLUDE\XMEMORY0
D:\DATA\PROGRAM FILES\VISUAL STUDIOS\VC\TOOLS\MSVC\14.21.27702\INCLUDE\CSTDINT
D:\DATA\PROGRAM FILES\VISUAL STUDIOS\VC\TOOLS\MSVC\14.21.27702\INCLUDE\STDINT.H
D:\DATA\PROGRAM FILES\VISUAL STUDIOS\VC\TOOLS\MSVC\14.21.27702\INCLUDE\LIMITS
D:\DATA\PROGRAM FILES\VISUAL STUDIOS\VC\TOOLS\MSVC\14.21.27702\INCLUDE\CFLOAT
C:\PROGRAM FILES (X86)\WINDOWS KITS\10\INCLUDE\10.0.17763.0\UCRT\FLOAT.H
D:\DATA\PROGRAM FILES\VISUAL STUDIOS\VC\TOOLS\MSVC\14.21.27702\INCLUDE\NEW
D:\DATA\PROGRAM FILES\VISUAL STUDIOS\VC\TOOLS\MSVC\14.21.27702\INCLUDE\XATOMIC.H
D:\DATA\PROGRAM FILES\VISUAL STUDIOS\VC\TOOLS\MSVC\14.21.27702\INCLUDE\INTRIN0.H
D:\DATA\PROGRAM FILES\VISUAL STUDIOS\VC\TOOLS\MSVC\14.21.27702\INCLUDE\XUTILITY
D:\DATA\PROGRAM FILES\VISUAL STUDIOS\VC\TOOLS\MSVC\14.21.27702\INCLUDE\UTILITY
D:\DATA\PROGRAM FILES\VISUAL STUDIOS\VC\TOOLS\MSVC\14.21.27702\INCLUDE\XCALL_ONCE.H
D:\DATA\PROGRAM FILES\VISUAL STUDIOS\VC\TOOLS\MSVC\14.21.27702\INCLUDE\XERRC.H
D:\DATA\PROGRAM FILES\VISUAL STUDIOS\VC\TOOLS\MSVC\14.21.27702\INCLUDE\XLOCALE
D:\DATA\PROGRAM FILES\VISUAL STUDIOS\VC\TOOLS\MSVC\14.21.27702\INCLUDE\MEMORY
D:\DATA\PROGRAM FILES\VISUAL STUDIOS\VC\TOOLS\MSVC\14.21.27702\INCLUDE\TYPEINFO
D:\DATA\PROGRAM FILES\VISUAL STUDIOS\VC\TOOLS\MSVC\14.21.27702\INCLUDE\VCRUNTIME_TYPEINFO.H
D:\DATA\PROGRAM FILES\VISUAL STUDIOS\VC\TOOLS\MSVC\14.21.27702\INCLUDE\XMEMORY
D:\DATA\PROGRAM FILES\VISUAL STUDIOS\VC\TOOLS\MSVC\14.21.27702\INCLUDE\XFACET
D:\DATA\PROGRAM FILES\VISUAL STUDIOS\VC\TOOLS\MSVC\14.21.27702\INCLUDE\XLOCINFO
D:\DATA\PROGRAM FILES\VISUAL STUDIOS\VC\TOOLS\MSVC\14.21.27702\INCLUDE\XLOCINFO.H
C:\PROGRAM FILES (X86)\WINDOWS KITS\10\INCLUDE\10.0.17763.0\UCRT\CTYPE.H
C:\PROGRAM FILES (X86)\WINDOWS KITS\10\INCLUDE\10.0.17763.0\UCRT\LOCALE.H
